{
    "Main": 
	{
	   "Logo": {
						"ENG":"img/main/logo_english.jpg",
						"HEB":"img/main/main1.jpg"
				 },
					 

        "newUser": {
						"ENG":"img/english/main2_eng.jpg",
						"HEB":"img/main/main2.jpg"
					 },					 
        "exisitingUser": {
						"ENG":"img/english/main3_eng.jpg",
						"HEB":"img/main/main3.jpg"
					 },
        "foundProduct": {
						"ENG":"img/english/main4_eng.jpg",
						"HEB":"img/main/main4.jpg"
					 },
        "foundPhone": {
						"ENG":"img/english/main5_eng.jpg",
						"HEB":"img/main/main5.jpg"
					 },
		"codeNotFound":    {
						"ENG":"Product Code not found, try again",
						"HEB":"קוד מוצר לא נמצא יש לנסות שוב"
					   }					 
       
        
    },
	
	
    "AboutPage": 
	{
        "AboutText": {
						"ENG":"Text About Gold Button App...",
						"HEB":"טקסט אודות אפליקצית כפתור הזהב..."
					 }	
       
        
    },
	
	    "NewUser": 
	{

					 
        "HeaderImage": {
						"ENG":"img/english/enter_code.png",
						"HEB":"img/new_user/enter_code.png"
					   },
		"fullName":    {
						"ENG":"Input Full Name",
						"HEB":"הזן שם מלא"
					   },
		"phone":    {
						"ENG":"Input Phone",
						"HEB":"הזן טלפון"
					   },
		"email":      {
						"ENG":"Input Email",
						"HEB":"הזן כתובת מייל"
					   },
		"okButton":    {
						"ENG":"img/english/ok_eng.png",
						"HEB":"img/new_user/btns/ok.png"
					   },
		"TermsText":    {
						"ENG":"I herby agree to the application terms and conditions",
						"HEB":"הינני מאשר את תנאי השימוש באפליקצייה"
					   },
		"TermsAgree":    {
						"ENG":"you must agree to the terms and conditions",
						"HEB":"יש לאשר תקנון שימוש"
					   }					   
       
        
    },
		 "Login": 
	{


		"email":  {
						"ENG":"Input Email",
						"HEB":"הזן כתובת מייל"
					   },
					   
		"phone":    {
						"ENG":"Input Phone",
						"HEB":"הזן טלפון"
					   },

		"okButton":    {
						"ENG":"img/english/ok_eng.png",
						"HEB":"img/new_user/btns/ok.png"
					   }						   
       
        
    },
	
		"CodeSelect": 
	{

        "welcomeText": {
						"ENG":"Welcome ",
						"HEB":"ברוכים הבאים"
					 },
		"currentCredit":  {
						"ENG":"Current Credit in your Account",
						"HEB":"קרדיט נוכחי בחשבונך"
					   },
					   
		"newcode":    {
						"ENG":"img/english/addcode_eng.png",
						"HEB":"img/new_user/btns/addcode.png"
					   },

		"logout":    {
						"ENG":"img/english/logout_eng.png",
						"HEB":"img/new_user/btns/logout.png"
					   },
		"codeNumber":    {
						"ENG":"Code Number",
						"HEB":"מספר קוד"
					   },
		"editcode":    {
						"ENG":"img/new_user/edit_icon.png",
						"HEB":"img/new_user/edit_icon.png"
					   },
		"deletecode":    {
						"ENG":"img/new_user/del_icon.png",
						"HEB":"img/new_user/del_icon.png"
					   },
		"LogOutBtn":    {
						"ENG":"img/logout.jpg",
						"HEB":"img/footer1.jpg"
					   },
		"NewCodeBtn":    {
						"ENG":"img/newcode.jpg",
						"HEB":"img/footer2.jpg"
					   }					   
       
        
    },
	
		"NewCode": 
	{


		"productName":  {
						"ENG":"Product Name",
						"HEB":"שם המוצר"
					   },
					   
		"Code":    {
						"ENG":"Input Code",
						"HEB":"הזן קוד"
					   },

		"okButton":    {
						"ENG":"img/english/ok_eng.png",
						"HEB":"img/new_user/btns/ok.png"
					   }				   
       
        
    },
	
	
		"CodeLogin": 
	{


		"printQR":  {
						"ENG":"img/english/printqr_eng.png",
						"HEB":"img/new_user/btns/printqr.png"
					   },
		"printMailImage":  {
						"ENG":"img/sendqrtomail.png",
						"HEB":"img/sendmail.png"
					   },					   
					   
		"AddContact":    {
						"ENG":"img/english/addcontact_add.png",
						"HEB":"img/new_user/btns/addcontact.png"
					   },
		"mailQR":    {
						"ENG":"img/goldfooter2.png",
						"HEB":"img/goldfooter.png"
					   },
		"mailSent":    {
						"ENG":"QR has been sent to ",
						"HEB":"קוד ה QR נשלח למייל "
					   },
		"Thanks":    {
						"ENG":"Thanks, Golden Button Team",
						"HEB":"תודה צוות כפתור הזהב "
					   },
		"ChooseSize":    {
						"ENG":"Choose Size ",
						"HEB":"בחר/י גודל "
					   },
		"direction":    {
						"ENG":"ltr",
						"HEB":"rtl"
					   }					   
       
        
    },
	
	
		"EditProfile": 
	{


		"name":  {
						"ENG":"Full Name",
						"HEB":"שם מלא"
					   },
					   
		"phone":    {
						"ENG":"Phone",
						"HEB":"טלפון"
					   },
					   
		"email":    {
						"ENG":"Email",
						"HEB":"מייל"
					   },
					   
		"okButton":    {
						"ENG":"img/english/ok_eng.png",
						"HEB":"img/new_user/btns/ok.png"
					   }				   
       
        
    },
	
	
		"NewContact": 
	{


		"name":  {
						"ENG":"Contact Name",
						"HEB":"שם איש קשר"
					   },
					   
		"phone":    {
						"ENG":"Contact Phone",
						"HEB":"טלפון איש קשר"
					   },
					   
		"email":    {
						"ENG":"Contact Email",
						"HEB":"מייל איש קשר"
					   },
		"or":    {
						"ENG":"or",
						"HEB":"או"
					   },					   
					   
		"okButton":    {
						"ENG":"img/english/ok_eng.png",
						"HEB":"img/new_user/btns/ok.png"
					   },			   
    
		"maxContactsError":    {
						"ENG":"there is a maximum 5 contacts per account",
						"HEB":"ניתן להוסיף עד 5 אנשי קשר לחשבון"
					   }
					   
        
    },
	
	
		"EditContact": 
	{


		"name":  {
						"ENG":"Contact Name",
						"HEB":"שם איש קשר"
					   },
					   
		"phone":    {
						"ENG":"Contact Phone",
						"HEB":"טלפון איש קשר"
					   },
					   
		"email":    {
						"ENG":"Contact Email",
						"HEB":"מייל איש קשר"
					   },
		"or":    {
						"ENG":"or",
						"HEB":"או"
					   },					   
		"okButton":    {
						"ENG":"img/english/ok_eng.png",
						"HEB":"img/new_user/btns/ok.png"
					   },			   
    
		"deleteContactBtn":    {
						"ENG":"img/english/delete_contact_eng.png",
						"HEB":"img/new_user/btns/delete_contact.png"
					   },
				
				"deleteContactText":    {
						"ENG":"confirm deletion of this contact?",
						"HEB":"האם לאשר מחיקת איש קשר זה?"
					   }			   
		  
    },
	
	
	
		"FoundProduct": 
	{


		"Productcode":  {
						"ENG":"Input Product Code",
						"HEB":"הכנס קוד מוצר"
					   },
	
					   
		"okButton":    {
						"ENG":"img/english/ok_eng.png",
						"HEB":"img/new_user/btns/ok.png"
					   },
		"codeNotFound":    {
						"ENG":"Product Code not found, try again",
						"HEB":"קוד מוצר לא נמצא יש לנסות שוב"
					   }					   
		  
    },
	
	
	
		"FoundCodeLogin": 
	{

			"Text1":  {
						"ENG":"Thank you for finding ",
						"HEB":"תודה שמצאת את ה"
					   },
					   
			"Text2":  {
						"ENG":"of",
						"HEB":"של"
					   },					   
					   
			"Text3":  {
						"ENG":"Please input your phone number and/or ",
						"HEB":"אנא הכנס את מספר הטלפון שלך או/ו"
					   },

			"Text4":  {
						"ENG":"Your mail, and any other information that could help reach you, and we'll send it to the customer's contacts",
						"HEB":"המייל וכל מידע נוסף על מנת להשיג אותך"
					   },
					   
			"or":  {
						"ENG":"or",
						"HEB":"או"
					   },					   

			"phone":  {
						"ENG":"Input Phone Number",
						"HEB":"הכנס מספר טלפון"
					   },


		"mail":  {
						"ENG":"Input Email",
						"HEB":"הכנס מייל"
					   },	
					   
		"okButton":    {
						"ENG":"img/english/ok_eng.png",
						"HEB":"img/new_user/btns/ok.png"
					   },
		"required":  {
						"ENG":"Required",
						"HEB":"חובה"
					   },
		"useful":  {
						"ENG":"any any other useful information that could get back in touch",
						"HEB":"וכל מידע שיכול לעזור למצוא אותך"
					   }					   
		  
    },
	
	
	
	"ThanksPage": 
	{

			"Text1":  {
						"ENG":"A message has been sent to all contacts ",
						"HEB":"נשלחה הודעה לכל אנשי הקשר, בקרוב"
					   },
					   
			"Text2":  {
						"ENG":"you'll be contacted soon, thanks you, gold button team",
						"HEB":"ייצרו איתך קשר , תודה צוות כפתור הזהב"
					   }				   
		  
    },
	
	
	
			"FoundPhonePage": 
	{

			"Text1":  {
						"ENG":"Thank you for finding the ",
						"HEB":"תודה שמצאת את ה"
					   },
					   
			"Text2":  {
						"ENG":"of",
						"HEB":"של"
					   },	

			"Text3":  {
						"ENG":"phone",
						"HEB":"טלפון"
					   },					   
					   
			"Text4":  {
						"ENG":"Please input your phone number and/or ",
						"HEB":"אנא הכנס את מספר הטלפון שלך או/ו"
					   },

			"Text5":  {
						"ENG":"Your mail,and any other information that could help reach you, and we'll send it to the customer's contacts",
						"HEB":"המייל וכל מידע נוסף על מנת להשיג אותך"
					   },
			"or":  {
						"ENG":"or",
						"HEB":"או"
					   },					   
					   

			"phone":  {
						"ENG":"Input Phone Number",
						"HEB":"הכנס מספר טלפון"
					   },


		"mail":  {
						"ENG":"Input Email",
						"HEB":"הכנס מייל"
					   },	
					   
		"okButton":    {
						"ENG":"img/english/ok_eng.png",
						"HEB":"img/new_user/btns/ok.png"
					   },
		"required":  {
						"ENG":"Required",
						"HEB":"חובה"
					   },
		"useful":  {
						"ENG":"any any other useful information that could get back in touch",
						"HEB":"וכל מידע שיכול לעזור למצוא אותך"
					   }						   
		  
    },
	
	

			"BuyPage": 
	{

						"TransOkOne":  {
						"ENG":"Transaction successful, thank you for your purcahse ",
						"HEB":"עסקה עברה בהצלחה ,תודה על הרכישה"
					   },
						"TransOkTwo":  {
						"ENG":"credits has been add to your account",
						"HEB":"קרדיטים נוספו לחשבונך"
					   },
						"BadTrans":  {
						"ENG":"Bad transaction, please try again",
						"HEB":"עסקה נכשלה יש לנסות שוב"
					   },
					   
					"CurrentCredit":  {
						"ENG":"Current Credits in your account",
						"HEB":"קרדיט נוכחי בחשבונך"
					   },
					   
					"Package1Title":  {
						"ENG":"Package #1",
						"HEB":"חבילה מספר 1"
					   },	

					"Package1Desc":  {
						"ENG":"Purcahse codes : 15",
						"HEB":"קודים לרכישה: 15"
					   },					   
					   
					"Package1Price":  {
						"ENG":"Price : 15 Shakels",
						"HEB":"מחיר: 15 ש\"ח"
					   },
					"Package2Title":  {
						"ENG":"Package #2",
						"HEB":"חבילה מספר 2"
					   },	

					"Package2Desc":  {
						"ENG":"Purcahse codes : 30",
						"HEB":"קודים לרכישה: 30"
					   },					   
					   
					"Package2Price":  {
						"ENG":"Price : 30 Shakels",
						"HEB":"מחיר: 30 ש\"ח"
					   },
					"Package3Title":  {
						"ENG":"Package #3",
						"HEB":"חבילה מספר 3"
					   },	

					"Package3Desc":  {
						"ENG":"Purcahse codes : 45",
						"HEB":"קודים לרכישה: 45"
					   },					   
					   
					"Package3Price":  {
						"ENG":"Price : 45 Shakels",
						"HEB":"מחיר: 45 ש\"ח"
					   }					   
			   
		  
    },
	
	

			"Contact": 
	{

				"HeaderImage": {
								"ENG":"img/english/enter_code.png",
								"HEB":"img/new_user/enter_code.png"
							   },
				"fullName":    {
								"ENG":"Input Full Name",
								"HEB":"הזן שם מלא"
							   },
				"phone":    {
								"ENG":"Input Phone",
								"HEB":"הזן טלפון"
							   },
				"email":      {
								"ENG":"Input Email",
								"HEB":"הזן כתובת מייל"
							   },
				"text":      {
								"ENG":"Input your message",
								"HEB":"הזן תוכן פנייה"
							   },							   
				"okButton":    {
								"ENG":"img/english/ok_eng.png",
								"HEB":"img/new_user/btns/ok.png"
							   }					   
			   
		  
    }	

	
	
	
	
	
}